timestamp, xv, yv, zv, yaw, pitch, roll, altitude, left-right-tilt, front-back-tilt, vertical_speed, angular_speed, marker_xpos, marker_ypos
37548, -10.39, -103.3, 0, 70, -98, -1.618e+05, 718, 0, 0, 0, 0, 380.8, 107.8
37579, -6.697, -97.43, 0, -169, -86, -1.619e+05, 720, 0, 0, 0, 0, 380.8, 107.8
37635, -6.834, -92.62, 0, -459, -154, -1.619e+05, 722, 0, 0, 0, 0, 366.7, 107.5
37719, -9.411, -96.93, 0, -559, -304, -1.62e+05, 724, 0, 0, 0, 0, 353.6, 106.3
37776, -4.886, -85.54, 0, -495, -481, -1.621e+05, 727, 0.0005132, -0.001604, 0, 0, 345.7, 103.8
37834, -3.223, -82.66, 0, -12, -776, -1.622e+05, 729, 0, 0, 0, 0, 339, 99.81
37926, 11.41, -109.1, 0, 1015, -1681, -1.623e+05, 735, 0.000334, -0.001774, 0, 0, 338.2, 88.81
37988, 30.5, -113.4, 0, 1449, -2055, -1.624e+05, 739, 0.0003643, -0.001904, 0, 0, 338.7, 83.14
38032, 43.47, -130.4, 0, 1429, -1870, -1.625e+05, 742, 0.000374, -0.002017, 0, 0, 334.9, 83.13
38085, 68.1, -147.7, 0, 1166, -1494, -1.626e+05, 744, 0.000298, -0.002017, 0, 0, 334.9, 83.13
38170, 70.71, -165.3, 0, 879, -980, -1.627e+05, 749, 3.806e-05, -0.001834, 0, 0, 321.9, 92.28
38231, 77.7, -179.4, 0, 765, -501, -1.628e+05, 754, -0.0002352, -0.001625, 0, 0, 303.3, 108.5
38292, 80.91, -179.2, 0, 718, -155, -1.63e+05, 760, -0.0003347, -0.001509, 0, 0, 320.4, 119.6
38370, 89.69, -187.2, 0, 501, 66, -1.631e+05, 765, -9.992e-05, -0.001185, 0, 0, 315, 124.7
38424, 84.81, -205.1, 0, 272, 216, -1.632e+05, 772, -0.000341, -0.001011, 0, 0, 303, 133.4
38478, 85.92, -214.9, 0, 34, 400, -1.634e+05, 773, -0.000811, -0.0007817, 0, 0, 279.5, 144.9
38568, 82.75, -217.3, 0, -209, 577, -1.635e+05, 769, -0.0009521, -0.0007061, 0, 0, 272.4, 148.7
38630, 75.61, -211, 0, -336, 708, -1.636e+05, 767, -0.001268, -0.0005616, 0, 0, 248.2, 159.8
38691, 59.52, -212.4, 0, -297, 759, -1.638e+05, 764, -0.001435, -0.0004831, 0, 0, 248.2, 159.8
38767, 60.02, -197.8, 0, -241, 726, -1.639e+05, 759, -0.001852, -0.0002884, 0, 0, 227.4, 169.6
38816, 45.07, -195.4, 0, -200, 706, -1.641e+05, 754, -0.002043, -0.0001648, 0, 0, 217.8, 175.8
38876, 38.55, -193.2, 0, -127, 666, -1.642e+05, 751, -0.002194, -0.00017, 0, 0, 210.3, 175.5
38969, 35.17, -196.7, 0, -153, 714, -1.643e+05, 748, -0.002526, -7.403e-05, 0, 0, 193.7, 180.3
39028, 25.76, -195.8, 0, -294, 758, -1.644e+05, 745, -0.002757, -7.642e-06, 0, 0, 177.8, 185.4
39078, 18.58, -193.7, 0, -357, 774, -1.645e+05, 743, -0.002844, 2.834e-05, 0, 0, 163.3, 187.5
39127, 9.246, -189.5, 0, -357, 845, -1.646e+05, 740, -0.003803, 0.0001272, 0, 0, 129.9, 190.4
39209, 0.5233, -177.4, 0, -387, 855, -1.648e+05, 738, -0.004357, 0.0001929, 0, 0, 102.2, 193.6
39274, -14.65, -158.7, 0, -352, 715, -1.649e+05, 738, -0.00462, 0.0001919, 0, 0, 89, 193.6
39335, -23.64, -156.8, 0, -259, 466, -1.65e+05, 735, -0.00492, 0.0001923, 0, 0, 74.01, 193.6
39406, -28.33, -151.6, 0, -329, 215, -1.651e+05, 734, -0.004975, 0.0001178, 0, 0, 71.24, 189.9
39462, -30.62, -141, 0, -362, 40, -1.652e+05, 731, -0.005257, -3.626e-05, 0, 0, 57.15, 182.2
39519, -30.15, -161.4, 0, -297, -124, -1.652e+05, 728, -0.005393, -6e-05, 0, 0, 50.37, 181
39611, -30.6, -163.6, 0, -356, -264, -1.652e+05, 726, -0.005541, -0.0001603, 0, 0, 44.41, 173.2
39672, -32.08, -142.4, 0, -280, -410, -1.653e+05, 725, -0.005492, -0.0003108, 0, 0, 45.38, 168.5
39716, -35.61, -138.9, 0, -112, -491, -1.653e+05, 724, -0.00532, -0.0003762, 0, 0, 53.98, 165.2
39805, -30.88, -147.6, 0, -47, -527, -1.654e+05, 719, -0.005502, -0.0004776, 0, 0, 41.15, 159.4
39865, -26.33, -141.1, 0, -92, -572, -1.654e+05, 715, -0.005774, -0.00057, 0, 0, 31.31, 155.5
39914, -25.63, -130.2, 0, -218, -649, -1.655e+05, 714, -0.00589, -0.0005762, 0, 0, 25.52, 155.2
40010, -20.73, -128.1, 0, -288, -721, -1.655e+05, 712, -0.006216, -0.0007239, 0, 0, 9.208, 147.8
40071, -16.84, -127.8, 0, -292, -716, -1.656e+05, 711, -0.006216, -0.0007239, 0, 0, 4.718, 145.4
40110, -16.8, -116.4, 0, -216, -701, -1.656e+05, 710, -0.006306, -0.0007714, 0, 0, 4.718, 145.4
40194, -15.51, -103.9, 0, -60, -639, -1.656e+05, 708, -0.006306, -0.0007714, 0, 0, 4.718, 145.4
40250, -12.73, -99.83, 0, 224, -471, -1.657e+05, 710, -0.006306, -0.0007714, 0, 0, 4.718, 145.4
40307, -7.821, -106, 0, 276, -225, -1.657e+05, 708, -0.006306, -0.0007714, 0, 0, 4.718, 145.4
40391, -10.81, -103.2, 0, 398, -22, -1.657e+05, 710, -0.006306, -0.0007714, 0, 0, 4.718, 145.4
40447, -14.84, -94.92, 0, 367, 158, -1.658e+05, 712, -0.006306, -0.0007714, 0, 0, 4.718, 145.4
40503, -20.12, -83.74, 0, 292, 235, -1.657e+05, 715, -0.006306, -0.0007714, 0, 0, 4.718, 145.4
40559, -20.36, -89.36, 0, 228, 211, -1.658e+05, 719, -0.006306, -0.0007714, 0, 0, 4.718, 145.4
40644, -26.24, -78.95, 0, 67, 171, -1.658e+05, 719, -0.006306, -0.0007714, 0, 0, 4.718, 145.4
40700, -28.24, -60.28, 0, -61, 84, -1.659e+05, 722, -0.006306, -0.0007714, 0, 0, 4.718, 145.4
40756, -27.55, -58.56, 0, -118, 69, -1.659e+05, 725, -0.006306, -0.0007714, 0, 0, 4.718, 145.4
40841, -27.34, -65.13, 0, -107, 94, -1.66e+05, 728, -0.006306, -0.0007714, 0, 0, 4.718, 145.4
40897, -33.47, -52.2, 0, -61, 62, -1.66e+05, 732, -0.006306, -0.0007714, 0, 0, 4.718, 145.4
40953, -31.84, -55.44, 0, -128, -34, -1.661e+05, 734, -0.006306, -0.0007714, 0, 0, 4.718, 145.4
41037, -32.14, -54.41, 0, -318, -153, -1.661e+05, 737, -0.006306, -0.0007714, 0, 0, 4.718, 145.4
41093, -29.95, -37.14, 0, -408, -170, -1.661e+05, 739, -0.006306, -0.0007714, 0, 0, 4.718, 145.4
41149, -27.93, -40.04, 0, -382, -29, -1.662e+05, 741, -0.006306, -0.0007714, 0, 0, 4.718, 145.4
41233, -30.96, -30.12, 0, -278, 215, -1.662e+05, 744, -0.006306, -0.0007714, 0, 0, 4.718, 145.4
41289, -34.2, -25.31, 0, -213, 343, -1.663e+05, 745, -0.006306, -0.0007714, 0, 0, 4.718, 145.4
41345, -43.89, -22.12, 0, -225, 210, -1.664e+05, 747, -0.006306, -0.0007714, 0, 0, 4.718, 145.4
41429, -51.11, -15.36, 0, -252, 18, -1.664e+05, 748, -0.006306, -0.0007714, 0, 0, 4.718, 145.4
41486, -51.42, -15.58, 0, -253, -82, -1.665e+05, 750, -0.006306, -0.0007714, 0, 0, 4.718, 145.4
41542, -51.73, -8.651, 0, -270, -89, -1.666e+05, 751, -0.006306, -0.0007714, 0, 0, 4.718, 145.4
41626, -52.09, -6.175, 0, -191, -47, -1.666e+05, 753, -0.006306, -0.0007714, 0, 0, 4.718, 145.4
41682, -52.54, -7.496, 0, -190, -17, -1.666e+05, 753, -0.006306, -0.0007714, 0, 0, 4.718, 145.4
41738, -59.38, 0.1878, 0, -117, -61, -1.666e+05, 755, -0.006306, -0.0007714, 0, 0, 4.718, 145.4
41795, -61.02, -7.747, 0, 1, -102, -1.665e+05, 755, -0.006306, -0.0007714, 0, 0, 4.718, 145.4
41880, -55.12, -9.656, 0, 25, -44, -1.665e+05, 757, -0.006306, -0.0007714, 0, 0, 4.718, 145.4
41936, -58.02, -2.485, 0, -41, 10, -1.665e+05, 760, -0.006306, -0.0007714, 0, 0, 4.718, 145.4
41992, -65.62, -13.82, 0, -67, -23, -1.665e+05, 759, -0.006306, -0.0007714, 0, 0, 4.718, 145.4
42075, -70.89, -13.08, 0, -276, -145, -1.664e+05, 759, -0.006306, -0.0007714, 0, 0, 4.718, 145.4
42131, -72.95, -5.869, 0, -486, -330, -1.664e+05, 759, -0.006306, -0.0007714, 0, 0, 4.718, 145.4
42187, -66.41, -13.38, 0, -501, -506, -1.664e+05, 758, -0.006306, -0.0007714, 0, 0, 4.718, 145.4
42272, -66.31, -4.047, 0, -533, -532, -1.664e+05, 758, -0.006306, -0.0007714, 0, 0, 4.718, 145.4
42328, -61.41, 5.818, 0, -497, -551, -1.663e+05, 758, -0.006306, -0.0007714, 0, 0, 4.718, 145.4
42384, -55.05, 1.656, 0, -410, -534, -1.663e+05, 757, -0.006306, -0.0007714, 0, 0, 4.718, 145.4
42468, -51.51, 9.017, 0, -411, -531, -1.662e+05, 756, -0.006306, -0.0007714, 0, 0, 4.718, 145.4
42524, -51.56, 15.67, 0, -384, -666, -1.661e+05, 754, -0.006306, -0.0007714, 0, 0, 4.718, 145.4
42580, -42.41, 11.87, 0, -421, -750, -1.66e+05, 751, -0.006306, -0.0007714, 0, 0, 4.718, 145.4
42665, -33.78, 13.64, 0, -578, -771, -1.659e+05, 751, -0.006306, -0.0007714, 0, 0, 4.718, 145.4
42721, -29.85, 23.53, 0, -579, -741, -1.659e+05, 750, -0.006306, -0.0007714, 0, 0, 4.718, 145.4
42778, -25.89, 24.98, 0, -555, -785, -1.658e+05, 750, -0.006306, -0.0007714, 0, 0, 4.718, 145.4
42862, -18.78, 29.72, 0, -635, -807, -1.658e+05, 750, -0.006306, -0.0007714, 0, 0, 4.718, 145.4
42918, -12.73, 41.74, 0, -630, -767, -1.658e+05, 751, -0.006306, -0.0007714, 0, 0, 4.718, 145.4
42974, -4.627, 46.82, 0, -559, -659, -1.657e+05, 750, -0.006306, -0.0007714, 0, 0, 4.718, 145.4
43057, 0.6012, 42.97, 0, -384, -481, -1.657e+05, 751, -0.006306, -0.0007714, 0, 0, 4.718, 145.4
43114, 6.879, 43.74, 0, -371, -231, -1.656e+05, 751, -0.006306, -0.0007714, 0, 0, 4.718, 145.4
43170, 4.026, 48.43, 0, -395, -5, -1.656e+05, 750, -0.006306, -0.0007714, 0, 0, 4.718, 145.4
43254, 3.935, 52.08, 0, -275, 141, -1.655e+05, 751, -0.006306, -0.0007714, 0, 0, 4.718, 145.4
43310, 2.747, 52.18, 0, -127, 192, -1.655e+05, 753, -0.006306, -0.0007714, 0, 0, 4.718, 145.4
43366, 3.425, 58.23, 0, -131, 162, -1.654e+05, 753, -0.006306, -0.0007714, 0, 0, 4.718, 145.4
43422, 1.147, 65.13, 0, -121, 148, -1.654e+05, 753, -0.006306, -0.0007714, 0, 0, 4.718, 145.4
43507, 3.582, 60.45, 0, -30, 152, -1.653e+05, 752, -0.006306, -0.0007714, 0, 0, 4.718, 145.4
43563, 2.614, 60.87, 0, 98, 262, -1.653e+05, 751, -0.006306, -0.0007714, 0, 0, 4.718, 145.4
43647, 2.883, 61.24, 0, 169, 426, -1.652e+05, 751, -0.006306, -0.0007714, 0, 0, 4.718, 145.4
43703, -0.03792, 52.25, 0, 228, 620, -1.651e+05, 752, -0.006306, -0.0007714, 0, 0, 4.718, 145.4
43759, -4.951, 41.19, 0, 261, 704, -1.649e+05, 753, -0.006306, -0.0007714, 0, 0, 4.718, 145.4
43816, -7.98, 46.63, 0, 266, 691, -1.649e+05, 754, -0.006306, -0.0007714, 0, 0, 4.718, 145.4
43900, -12, 61.74, 0, 289, 686, -1.648e+05, 755, -0.006306, -0.0007714, 0, 0, 4.718, 145.4
43957, -17.01, 65.51, 0, 458, 688, -1.648e+05, 756, -0.006306, -0.0007714, 0, 0, 4.718, 145.4
44012, -24.08, 58.2, 0, 677, 600, -1.648e+05, 759, -0.006306, -0.0007714, 0, 0, 4.718, 145.4
44096, -25.59, 42.2, 0, 634, 429, -1.648e+05, 758, -0.006306, -0.0007714, 0, 0, 4.718, 145.4
44152, -21.72, 32.14, 0, 477, 331, -1.648e+05, 759, -0.006306, -0.0007714, 0, 0, 4.718, 145.4
44208, -20.98, 38.61, 0, 336, 278, -1.648e+05, 759, -0.006306, -0.0007714, 0, 0, 4.718, 145.4
44292, -26, 34.15, 0, 243, 271, -1.649e+05, 757, -0.006306, -0.0007714, 0, 0, 4.718, 145.4
44349, -23.47, 24.68, 0, 137, 216, -1.649e+05, 757, -0.006306, -0.0007714, 0, 0, 4.718, 145.4
44405, -21.05, 21.72, 0, -112, 109, -1.648e+05, 757, -0.006306, -0.0007714, 0, 0, 4.718, 145.4
44489, -17.57, 27.01, 0, -454, 85, -1.648e+05, 758, -0.006306, -0.0007714, 0, 0, 4.718, 145.4
44545, -17.14, 29.12, 0, -654, 68, -1.647e+05, 758, -0.006306, -0.0007714, 0, 0, 4.718, 145.4
44601, -15.98, 40.21, 0, -896, -45, -1.646e+05, 756, -0.006306, -0.0007714, 0, 0, 4.718, 145.4
44685, -10.22, 48.74, 0, -1124, -223, -1.646e+05, 754, -0.006306, -0.0007714, 0, 0, 4.718, 145.4
44742, -5.334, 59.32, 0, -1204, -351, -1.645e+05, 755, -0.006306, -0.0007714, 0, 0, 4.718, 145.4
44799, 2.692, 75.64, 0, -1340, -456, -1.644e+05, 753, -0.006306, -0.0007714, 0, 0, 4.718, 145.4
44855, 11.12, 91.34, 0, -1506, -533, -1.643e+05, 751, -0.006306, -0.0007714, 0, 0, 4.718, 145.4
44939, 12.19, 105.3, 0, -1547, -587, -1.643e+05, 750, -0.006306, -0.0007714, 0, 0, 4.718, 145.4
44995, 23.33, 118.3, 0, -1534, -704, -1.641e+05, 747, -0.006306, -0.0007714, 0, 0, 4.718, 145.4
45050, 31.67, 134.5, 0, -1510, -793, -1.641e+05, 745, -0.006306, -0.0007714, 0, 0, 4.718, 145.4
45134, 41.84, 159.7, 0, -1426, -917, -1.64e+05, 743, -0.006306, -0.0007714, 0, 0, 4.718, 145.4
45191, 51.48, 181.5, 0, -1348, -841, -1.64e+05, 739, -0.006306, -0.0007714, 0, 0, 4.718, 145.4
45247, 63.41, 209.7, 0, -1199, -641, -1.64e+05, 737, -0.006306, -0.0007714, 0, 0, 4.718, 145.4
45331, 70.17, 215.7, 0, -918, -487, -1.64e+05, 733, -0.006306, -0.0007714, 0, 0, 4.718, 145.4
45387, 81.05, 216.7, 0, -635, -307, -1.64e+05, 728, -0.006306, -0.0007714, 0, 0, 4.718, 145.4
45443, 85.7, 223.1, 0, -472, -47, -1.64e+05, 727, -0.006306, -0.0007714, 0, 0, 4.718, 145.4
45527, 82.69, 223.6, 0, -535, 238, -1.64e+05, 724, -0.006306, -0.0007714, 0, 0, 4.718, 145.4
45584, 74.88, 227.2, 0, -605, 329, -1.64e+05, 719, -0.006306, -0.0007714, 0, 0, 4.718, 145.4
45640, 68.52, 234.1, 0, -658, 362, -1.64e+05, 719, -0.006306, -0.0007714, 0, 0, 4.718, 145.4
45724, 59.78, 239.8, 0, -723, 279, -1.64e+05, 717, -0.006306, -0.0007714, 0, 0, 4.718, 145.4
45781, 53.66, 247.5, 0, -730, 121, -1.64e+05, 718, -0.006306, -0.0007714, 0, 0, 4.718, 145.4
45837, 52.48, 252.1, 0, -712, -107, -1.641e+05, 718, -0.006306, -0.0007714, 0, 0, 4.718, 145.4
45923, 56.09, 253.7, 0, -623, -233, -1.641e+05, 719, -0.00291, -0.00362, 0, 0, 158.8, 3.5
45983, 60.23, 260.8, 0, -538, -247, -1.641e+05, 719, -0.002986, -0.003596, 0, 0, 170.7, 4.216
46033, 61.01, 257.1, 0, -441, -204, -1.642e+05, 722, -0.002568, -0.003552, 0, 0, 191.6, 6.41
46125, 63.86, 257.7, 0, -236, -151, -1.643e+05, 727, -0.002356, -0.003533, 0, 0, 202.2, 7.326
46186, 61.48, 260.3, 0, -56, -105, -1.643e+05, 717, -0.001799, -0.003427, 0, 0, 230.1, 12.63
46230, 57.4, 242.3, 0, 102, -53, -1.643e+05, 710, -0.001404, -0.003317, 0, 0, 249.8, 18.16
46286, 52.5, 228.1, 0, 289, -77, -1.642e+05, 707, -0.001253, -0.003264, 0, 0, 257.3, 20.78
46370, 52.34, 218.8, 0, 413, -42, -1.642e+05, 707, -0.0007232, -0.003098, 0, 0, 283.8, 29.11
46431, 56.62, 204.3, 0, 431, 109, -1.642e+05, 713, -0.0003931, -0.003006, 0, 0, 300.3, 33.69
46493, 50.76, 193.6, 0, 341, 208, -1.642e+05, 720, -0.0001495, -0.002948, 0, 0, 312.5, 36.59
46567, 42.89, 184.3, 0, 200, 318, -1.643e+05, 729, 0.0002553, -0.002751, 0, 0, 332.8, 46.44
46626, 38.17, 169.3, 0, 182, 470, -1.643e+05, 737, 0.000499, -0.002645, 0, 0, 345, 51.73
46680, 33.51, 156.7, 0, 182, 566, -1.644e+05, 742, 0.0006518, -0.002591, 0, 0, 352.6, 54.46
46769, 24.4, 137.4, 0, 211, 628, -1.644e+05, 747, 0.0009774, -0.002411, 0, 0, 368.9, 63.47
46831, 14.9, 131.6, 0, 274, 646, -1.644e+05, 757, 0.001225, -0.00235, 0, 0, 388.2, 67.25
46892, 13.22, 133.4, 0, 207, 716, -1.645e+05, 772, 0.001364, -0.002335, 0, 0, 388.2, 67.25
46964, 9.284, 127.6, 0, -25, 709, -1.645e+05, 770, 0.001709, -0.002268, 0, 0, 405.4, 70.62
47017, 0.5946, 118.9, 0, -317, 650, -1.645e+05, 773, 0.001867, -0.00224, 0, 0, 413.4, 71.98
47076, -8.312, 121, 0, -593, 534, -1.644e+05, 759, 0.001917, -0.002249, 0, 0, 415.9, 71.54
47167, -9.975, 116.7, 0, -765, 467, -1.643e+05, 751, 0.002141, -0.002293, 0, 0, 427.1, 69.35
47228, -13.32, 121.5, 0, -880, 433, -1.642e+05, 747, 0.002189, -0.002354, 0, 0, 432.3, 65.87
47272, -16.88, 124.9, 0, -904, 440, -1.642e+05, 743, 0.002247, -0.002363, 0, 0, 432.3, 65.87
47355, -24.3, 124, 0, -756, 440, -1.641e+05, 744, 0.002068, -0.002409, 0, 0, 423.4, 63.54
47411, -27.91, 120.5, 0, -526, 407, -1.64e+05, 742, 0.002307, -0.002457, 0, 0, 435.3, 61.13
47472, -30.24, 120, 0, -369, 427, -1.639e+05, 740, 0.00245, -0.002488, 0, 0, 442.5, 59.59
47532, -37.68, 118.5, 0, -286, 470, -1.637e+05, 740, 0.002693, -0.002551, 0, 0, 461.3, 55.63
47671, -49.61, 146.4, 0, 22, 351, -1.634e+05, 740, 0.003899, -0.002674, 0, 0, 515, 50.31
47720, -51.87, 120.7, 0, 492, 461, -1.632e+05, 742, 0.004909, -0.00281, 0, 0, 565.5, 43.52
47811, -59.22, 105.5, 0, 819, 575, -1.632e+05, 744, 0.005214, -0.002882, 0, 0, 580.7, 39.9
47872, -71.58, 107.9, 0, 906, 540, -1.63e+05, 746, 0.005388, -0.002891, 0, 0, 589.4, 39.45
47918, -85.12, 85.92, 0, 1023, 373, -1.629e+05, 750, 0.005724, -0.003034, 0, 0, 606.2, 32.32
48001, -94.77, 67.76, 0, 893, 231, -1.628e+05, 754, 0.005353, -0.003167, 0, 0, 587.6, 25.63
48057, -97.9, 57.98, 0, 661, 104, -1.628e+05, 756, 0.005393, -0.003243, 0, 0, 589.6, 21.86
48116, -98.2, 46.67, 0, 396, -55, -1.626e+05, 758, 0.005414, -0.00342, 0, 0, 590.6, 9.13
48198, -100.7, 43.26, 0, 81, -260, -1.625e+05, 758, 0.005392, -0.0036, 0, 0, 589.6, 3.998
48254, -99.4, 49.74, 0, -187, -462, -1.624e+05, 758, 0.005392, -0.0036, 0, 0, 589.6, 3.998
48310, -94.55, 50.44, 0, -218, -569, -1.623e+05, 760, 0.005392, -0.0036, 0, 0, 589.6, 3.998
48394, -86.29, 56.76, 0, -52, -561, -1.623e+05, 758, 0.005392, -0.0036, 0, 0, 589.6, 3.998
48451, -80.48, 57.35, 0, -149, -453, -1.622e+05, 757, 0.005392, -0.0036, 0, 0, 589.6, 3.998
48507, -80.63, 59.96, 0, -399, -381, -1.623e+05, 754, 0.005392, -0.0036, 0, 0, 589.6, 3.998
48591, -89.14, 60.87, 0, -610, -506, -1.623e+05, 753, 0.005392, -0.0036, 0, 0, 589.6, 3.998
48647, -96.61, 68.38, 0, -788, -755, -1.623e+05, 751, 0.005392, -0.0036, 0, 0, 589.6, 3.998
48703, -94.93, 83.41, 0, -730, -989, -1.624e+05, 747, 0.005392, -0.0036, 0, 0, 589.6, 3.998
48788, -88.45, 83.99, 0, -514, -1241, -1.625e+05, 745, 0.005392, -0.0036, 0, 0, 589.6, 3.998
48844, -67.8, 107, 0, -273, -1281, -1.625e+05, 741, 0.005392, -0.0036, 0, 0, 589.6, 3.998
48901, -53.98, 93.2, 0, -37, -1158, -1.626e+05, 738, 0.005392, -0.0036, 0, 0, 589.6, 3.998
48985, -50.13, 82.39, 0, 86, -1042, -1.626e+05, 735, 0.005392, -0.0036, 0, 0, 589.6, 3.998
49040, -41.48, 78.66, 0, 306, -815, -1.627e+05, 733, 0.005392, -0.0036, 0, 0, 589.6, 3.998
49096, -34.68, 58.57, 0, 645, -474, -1.628e+05, 734, 0.005392, -0.0036, 0, 0, 589.6, 3.998
49152, -32.52, 50.07, 0, 843, -221, -1.629e+05, 734, 0.005392, -0.0036, 0, 0, 589.6, 3.998
49236, -34.09, 41.95, 0, 813, -68, -1.63e+05, 735, 0.005392, -0.0036, 0, 0, 589.6, 3.998
49293, -36.8, 44.47, 0, 910, -10, -1.632e+05, 738, 0.005392, -0.0036, 0, 0, 589.6, 3.998
49349, -39.48, 33.74, 0, 1067, 40, -1.633e+05, 741, 0.005392, -0.0036, 0, 0, 589.6, 3.998
49433, -47.99, 27.8, 0, 1086, 89, -1.635e+05, 743, 0.005392, -0.0036, 0, 0, 589.6, 3.998
49489, -54.98, 23.73, 0, 955, 32, -1.637e+05, 749, 0.005392, -0.0036, 0, 0, 589.6, 3.998
49545, -54.85, 14.14, 0, 882, 89, -1.638e+05, 755, 0.005392, -0.0036, 0, 0, 589.6, 3.998
49629, -53.26, 2.696, 0, 727, 184, -1.638e+05, 759, 0.005392, -0.0036, 0, 0, 589.6, 3.998
49686, -56.23, -7.018, 0, 306, 315, -1.637e+05, 764, 0.005392, -0.0036, 0, 0, 589.6, 3.998
49742, -64, 1.434, 0, -82, 462, -1.637e+05, 770, 0.005392, -0.0036, 0, 0, 589.6, 3.998
49827, -71.25, -2.975, 0, -213, 467, -1.637e+05, 775, 0.005392, -0.0036, 0, 0, 589.6, 3.998
49883, -78.9, -13.47, 0, -174, 481, -1.637e+05, 781, 0.005392, -0.0036, 0, 0, 589.6, 3.998
49939, -83.81, -9.146, 0, -113, 428, -1.637e+05, 785, 0.005392, -0.0036, 0, 0, 589.6, 3.998
50022, -94.47, 0.1859, 0, 36, 249, -1.636e+05, 788, 0.005392, -0.0036, 0, 0, 589.6, 3.998
50079, -95.14, -3.334, 0, 277, 57, -1.635e+05, 794, 0.005392, -0.0036, 0, 0, 589.6, 3.998
50135, -99.66, -21.32, 0, 355, -201, -1.633e+05, 798, 0.005392, -0.0036, 0, 0, 589.6, 3.998
50219, -98.75, -26.45, 0, 184, -476, -1.631e+05, 803, 0.005392, -0.0036, 0, 0, 589.6, 3.998
50275, -89.96, -2.452, 0, 8, -672, -1.629e+05, 808, 0.005392, -0.0036, 0, 0, 589.6, 3.998
50331, -82.98, -11.2, 0, -66, -721, -1.627e+05, 810, 0.005392, -0.0036, 0, 0, 589.6, 3.998
50415, -68.55, -13.31, 0, -163, -508, -1.626e+05, 812, 0.005392, -0.0036, 0, 0, 589.6, 3.998
50471, -61.37, -8.384, 0, -155, -84, -1.625e+05, 813, 0.005392, -0.0036, 0, 0, 589.6, 3.998
50528, -63.08, -19.77, 0, -290, 369, -1.624e+05, 815, 0.005392, -0.0036, 0, 0, 589.6, 3.998
50584, -62.63, -11.28, 0, -462, 648, -1.622e+05, 816, 0.005392, -0.0036, 0, 0, 589.6, 3.998
50668, -62.31, -2.457, 0, -389, 720, -1.621e+05, 814, 0.005392, -0.0036, 0, 0, 589.6, 3.998
50724, -68.82, 14.79, 0, -189, 689, -1.62e+05, 813, 0.005392, -0.0036, 0, 0, 589.6, 3.998
50781, -74.29, 8.208, 0, 76, 692, -1.62e+05, 813, 0.005392, -0.0036, 0, 0, 589.6, 3.998
50865, -81.41, 4.881, 0, 278, 713, -1.619e+05, 807, 0.005392, -0.0036, 0, 0, 589.6, 3.998
50921, -92.98, 23.6, 0, 500, 631, -1.619e+05, 801, 0.005392, -0.0036, 0, 0, 589.6, 3.998
50978, -101.5, 20.04, 0, 706, 436, -1.619e+05, 795, 0.005392, -0.0036, 0, 0, 589.6, 3.998
51061, -99.56, 0.01296, 0, 808, 287, -1.618e+05, 789, 0.005392, -0.0036, 0, 0, 589.6, 3.998
51117, -98.17, -14.71, 0, 712, 204, -1.618e+05, 784, 0.005392, -0.0036, 0, 0, 589.6, 3.998
51173, -97.05, -21.51, 0, 626, 57, -1.617e+05, 779, 0.005392, -0.0036, 0, 0, 589.6, 3.998
51257, -92.18, -19.88, 0, 519, -78, -1.617e+05, 775, 0.005392, -0.0036, 0, 0, 589.6, 3.998
51314, -85.57, -23.62, 0, 407, -158, -1.616e+05, 778, 0.005392, -0.0036, 0, 0, 589.6, 3.998
51370, -80.58, -15.41, 0, 246, -206, -1.617e+05, 775, 0.005392, -0.0036, 0, 0, 589.6, 3.998
51454, -73.23, 0.6948, 0, -33, -187, -1.618e+05, 778, 0.005392, -0.0036, 0, 0, 589.6, 3.998
51510, -65.73, 14.86, 0, -410, -148, -1.619e+05, 779, 0.005392, -0.0036, 0, 0, 589.6, 3.998
51566, -60.63, 33.12, 0, -592, -143, -1.62e+05, 780, 0.005392, -0.0036, 0, 0, 589.6, 3.998
51650, -57.23, 4.188, 0, -599, -97, -1.62e+05, 779, 0.005392, -0.0036, 0, 0, 589.6, 3.998
51707, -57.33, 13.19, 0, -482, -221, -1.621e+05, 778, 0.005392, -0.0036, 0, 0, 589.6, 3.998
51763, -49.24, 20.73, 0, -262, -361, -1.621e+05, 778, 0.005392, -0.0036, 0, 0, 589.6, 3.998
51848, -43.73, 31.24, 0, -77, -472, -1.621e+05, 779, 0.005392, -0.0036, 0, 0, 589.6, 3.998
51904, -34.89, 34.3, 0, 90, -502, -1.621e+05, 777, 0.005392, -0.0036, 0, 0, 589.6, 3.998
51960, -31.61, 54.19, 0, 215, -535, -1.621e+05, 777, 0.005392, -0.0036, 0, 0, 589.6, 3.998
52015, -26.19, 13.7, 0, 327, -508, -1.62e+05, 777, 0.005392, -0.0036, 0, 0, 589.6, 3.998
52099, -17.56, 16.63, 0, 311, -447, -1.62e+05, 779, 0.005392, -0.0036, 0, 0, 589.6, 3.998
52156, -6.557, 12.13, 0, 292, -350, -1.62e+05, 777, 0.005392, -0.0036, 0, 0, 589.6, 3.998
52212, -4.164, -10.44, 0, 220, -293, -1.619e+05, 775, 0.005392, -0.0036, 0, 0, 589.6, 3.998
